Gene_Symbol	Sources(; separated)	Level4	Level3	Level2	Model_Of_Inheritance	Phenotypes	Omim	Orphanet	HPO	Publications	Description	Flagged	GEL_Status	UserRatings_Green_amber_red	version	ready	Mode of pathogenicity	Rate	Current Diagnostic	Comments	Username
ABCC5-AS1		Panel One	asdf 24	asdfasdf 223	MITOCHONDRIAL	56h	asdf;asdf;asdfasd	adf;jwoi	adf;asdfjwo	5hh6		FALSE	4	0;0;0	1.34	FALSE	Other	RED	FALSE	No comments	verified_user
ABCC5-AS21		Panel One	asdf 24	asdfasdf 223	MITOCHONDRIAL	56h	asdf;asdf;asdfasd	adf;jwoi	adf;asdfjwo	5hh6		FALSE	4	0;0;0	1.34	FALSE	Other		FALSE	No comments	verified_user
